{
  "stopOrders": {
    "Summer 1": [
      "College Avenue Student Ctr",
      "The Yard",
      "Student Activities Center Northbound",
      "Hill Center (NB)",
      "Sciences Building",
      "Busch Student Ctr",
      "Livingston Plaza",
      "Livingston Student Center",
      "Quads",
      "Student Activities Center Southbound",
      "Red Oak Lane",
      "Lipman Hall",
      "Biel Road",
      "Henderson",
      "Gibbons",
      "College Hall",
      "SoCam Apts NB"
    ],
    "Summer 2": [
      "College Avenue Student Ctr",
      "The Yard",
      "SoCam Apts SB",
      "Red Oak Lane",
      "Lipman Hall",
      "Biel Road",
      "Henderson",
      "Gibbons",
      "College Hall",
      "Student Activities Center Northbound",
      "Livingston Plaza",
      "Livingston Student Center",
      "Quads",
      "Busch Student Ctr",
      "Allison Road Classrooms",
      "Hill Center (SB)"
    ],
    "Route Weekend 1": [
      "College Avenue Student Ctr",
      "The Yard",
      "Student Activities Center Northbound",
      "Hill Center (NB)",
      "Sciences Building",
      "Busch Student Ctr",
      "Livingston Plaza",
      "Livingston Student Center",
      "Quads",
      "Student Activities Center Southbound",
      "Red Oak Lane",
      "Lipman Hall",
      "Biel Road",
      "Henderson",
      "Gibbons",
      "College Hall",
      "SoCam Apts NB"
    ],
    "Route Weekend 2": [
      "College Avenue Student Ctr",
      "The Yard",
      "SoCam Apts SB",
      "Red Oak Lane",
      "Lipman Hall",
      "Biel Road",
      "Henderson",
      "Gibbons",
      "College Hall",
      "Student Activities Center Northbound",
      "Livingston Plaza",
      "Livingston Student Center",
      "Quads",
      "Busch Student Ctr",
      "Allison Road Classrooms",
      "Hill Center (SB)"
    ],
    "Route All Campuses": [
      "College Avenue Student Ctr",
      "The Yard",
      "Student Activities Center Northbound",
      "Hill Center (NB)",
      "Sciences Building",
      "Busch Student Ctr",
      "Livingston Plaza",
      "Livingston Student Center",
      "Quads",
      "Student Activities Center Southbound",
      "Red Oak Lane",
      "Lipman Hall",
      "Biel Road",
      "Henderson",
      "Gibbons",
      "College Hall",
      "SoCam Apts NB"
    ],
    "Route B-He": [
      "Livingston Student Center",
      "Quads",
      "Busch-Livingston Health Center",
      "Busch Student Ctr",
      "Allison Road Classrooms",
      "Hill Center (SB)",
      "Livingston Plaza",
      "Hill Center (NB)"
    ],
    "Route B-He - Exam": [
      "Livingston Student Center",
      "Quads",
      "Busch-Livingston Health Center",
      "Busch Student Ctr",
      "Allison Road Classrooms",
      "Hill Center (NB)",
      "Livingston Plaza"
    ],
    "Route B": [
      "Livingston Student Center",
      "Quads",
      "Hill Center (NB)",
      "Sciences Building",
      "Busch Student Ctr",
      "Livingston Plaza"
    ],
    "Route B - Exam": [
      "Livingston Student Center",
      "Quads",
      "Hill Center (NB)",
      "Sciences Building",
      "Busch Student Ctr",
      "Livingston Plaza"
    ],
    "Route C": [
      "Stadium West Lot",
      "Hill Center (NB)",
      "Allison Road Classrooms",
      "Hill Center (SB)"
    ],
    "Route C - Exam": [
      "Stadium West Lot",
      "Hill Center (NB)",
      "Allison Road Classrooms",
      "Hill Center (SB)"
    ],
    "Route H": [
      "Busch Student Ctr",
      "Allison Road Classrooms",
      "Hill Center (SB)",
      "Stadium West Lot",
      "College Avenue Student Ctr",
      "The Yard",
      "Student Activities Center Northbound",
      "Werblin Recreation Center"
    ],
    "Route H - Exam": [
      "Busch Student Ctr",
      "Allison Road Classrooms",
      "Hill Center (SB)",
      "Stadium West Lot",
      "College Avenue Student Ctr",
      "The Yard",
      "Student Activities Center Northbound",
      "Werblin Main Entrance"
    ],
    "Route A": [
      "College Avenue Student Ctr",
      "The Yard",
      "Student Activities Center Northbound",
      "Stadium West Lot",
      "Hill Center (NB)",
      "Sciences Building",
      "Busch Student Ctr",
      "Werblin Main Entrance",
      "Werblin Recreation Center"
    ],
    "Route A - Exam": [
      "College Avenue Student Ctr",
      "The Yard",
      "Student Activities Center Northbound",
      "Stadium West Lot",
      "Hill Center (NB)",
      "Sciences Building",
      "Busch Student Ctr",
      "Werblin Recreation Center"
    ],
    "Route EE": [
      "College Avenue Student Ctr",
      "The Yard",
      "SoCam Apts SB",
      "Red Oak Lane",
      "Lipman Hall",
      "Biel Road",
      "Henderson",
      "Gibbons",
      "College Hall",
      "SoCam Apts NB",
      "Student Activities Center Northbound"
    ],
    "Route EE - Exam": [
      "College Avenue Student Ctr",
      "The Yard",
      "SoCam Apts SB",
      "Red Oak Lane",
      "Lipman Hall",
      "Biel Road",
      "Henderson",
      "Gibbons",
      "College Hall",
      "SoCam Apts NB",
      "Student Activities Center Northbound"
    ],
    "Route F": [
      "Red Oak Lane",
      "Lipman Hall",
      "College Hall",
      "Student Activities Center Northbound",
      "The Yard"
    ],
    "Route F - Exam": [
      "Red Oak Lane",
      "Lipman Hall",
      "College Hall",
      "Student Activities Center Northbound",
      "The Yard"
    ],
    "Route LX": [
      "Livingston Student Center",
      "Quads",
      "College Avenue Student Ctr",
      "The Yard",
      "Student Activities Center Northbound",
      "Livingston Plaza"
    ],
    "Route LX - Exam": [
      "Livingston Student Center",
      "Busch-Livingston Health Center",
      "College Avenue Student Ctr",
      "The Yard",
      "Student Activities Center Northbound",
      "Livingston Plaza"
    ],
    "Route REXB": [
      "Red Oak Lane",
      "Lipman Hall",
      "College Hall",
      "Hill Center (NB)",
      "Allison Road Classrooms",
      "Hill Center (SB)"
    ],
    "Route REXB - Exam": [
      "Red Oak Lane",
      "Lipman Hall",
      "College Hall",
      "Hill Center (NB)",
      "Allison Road Classrooms",
      "Public Safety Building on Commercial Southbound"
    ],
    "Route REXL": [
      "Red Oak Lane",
      "Lipman Hall",
      "College Hall",
      "Livingston Plaza",
      "Livingston Student Center"
    ],
    "Route REXL - Exam": [
      "Red Oak Lane",
      "Lipman Hall",
      "College Hall",
      "Livingston Plaza",
      "Livingston Student Center"
    ],
    "OverNight Weekend 1": [
      "College Avenue Student Ctr",
      "The Yard",
      "Student Activities Center Northbound",
      "Hill Center (NB)",
      "Sciences Building",
      "Busch Student Ctr",
      "Livingston Plaza",
      "Livingston Student Center",
      "Quads",
      "Student Activities Center Southbound",
      "Red Oak Lane",
      "Lipman Hall",
      "Biel Road",
      "Henderson",
      "Gibbons",
      "College Hall",
      "SoCam Apts NB"
    ],
    "OverNight Weekend 2": [
      "College Avenue Student Ctr",
      "The Yard",
      "SoCam Apts SB",
      "Red Oak Lane",
      "Lipman Hall",
      "Biel Road",
      "Henderson",
      "Gibbons",
      "College Hall",
      "Student Activities Center Northbound",
      "Livingston Plaza",
      "Livingston Student Center",
      "Quads",
      "Busch Student Ctr",
      "Allison Road Classrooms",
      "Hill Center (SB)"
    ],
    "Newark Penn Station": [
      "Medical School (Arrival)",
      "Hospital",
      "Bergen Building",
      "Dental School",
      "180 W Market St",
      "ICPH",
      "NJIT",
      "Blumenthal Hall",
      "Penn Station"
    ],
    "Newark Campus Connect": [
      "Boyden Hall",
      "NJIT",
      "ICPH",
      "Bergen Building",
      "Medical School",
      "ECC",
      "CLJ",
      "Washington Park",
      "Broad St",
      "University North",
      "Physical Plant"
    ],
    "Newark Penn Station Express": [
      "Penn Station",
      "Medical School",
      "Hospital"
    ],
    "Newark Campus Connect Express": [
      "Boyden Hall",
      "Medical School",
      "CLJ",
      "Washington Park"
    ],
    "Campus Connect PM": [
      "Boyden Hall",
      "NJIT",
      "New Street",
      "ICPH",
      "Bergen Building",
      "Medical School",
      "ECC",
      "CLJ",
      "Washington Park",
      "Broad St",
      "Physical Plant"
    ],
    "Camden Rising": [
      "Florio Center",
      "Camden County Courthouse",
      "Waterfront",
      "Camden County College",
      "Rowan University",
      "WRTC/PATCO",
      "Joint Sciences Center",
      "Cooper Medical School of Rowan University",
      "Triad 1828 Center"
    ],
    "Courthouse Loop": ["Camden County Courthouse"],
    "TRIAD1828 & American Water Shuttle": [
      "City Hall",
      "WRTC/PATCO",
      "Triad 1828 Center"
    ]
  }
}
