{
  "routeColor": [
    {
      "rtag": "A",
      "rname": "Route A",
      "rcolor": "rgb(124, 31, 206)"
    },
    {
      "rtag": "B",
      "rname": "Route B",
      "rcolor": "rgb(32, 116, 214)"
    },
    {
      "rtag": "C",
      "rname": "Route C",
      "rcolor": "rgb(244, 74, 74)"
    },
    {
      "rtag": "EE",
      "rname": "Route EE",
      "rcolor": "rgb(62, 210, 177)"
    },
    {
      "rtag": "F",
      "rname": "Route F",
      "rcolor": "rgb(243, 37, 168)"
    },
    {
      "rtag": "H",
      "rname": "Route H",
      "rcolor": "rgb(119, 204, 27)"
    },
    {
      "rtag": "LX",
      "rname": "Route LX",
      "rcolor": "rgb(255, 204, 0)"
    },
    {
      "rtag": "ALL",
      "rname": "Route All Campuses",
      "rcolor": "rgb(0, 156, 80)"
    },
    {
      "rtag": "S1",
      "rname": "Route New BrunsQuick 1 Shuttle",
      "rcolor": "rgb(236, 76, 127)"
    },
    {
      "rtag": "S2",
      "rname": "Route New BrunsQuick 2 Shuttle",
      "rcolor": "rgb(90, 200, 250)"
    },
    {
      "rtag": "RBHS",
      "rname": "Route RBHS",
      "rcolor": "rgb(88, 86, 214)"
    },
    {
      "rtag": "REXB",
      "rname": "Route REXB",
      "rcolor": "rgb(255, 149, 0)"
    },
    {
      "rtag": "REXL",
      "rname": "Route REXL",
      "rcolor": "rgb(187, 120, 246)"
    },
    {
      "rtag": "B-He",
      "rname": "Route B-He",
      "rcolor": "rgb(160, 82, 45)"
    },
    {
      "rtag": "W1",
      "rname": "Route Weekend 1",
      "rcolor": "rgb(244, 74, 74)"
    },
    {
      "rtag": "W2",
      "rname": "Route Weekend 2",
      "rcolor": "rgb(32, 116, 214)"
    },
    {
      "rtag": "W1",
      "rname": "Weekend 1",
      "rcolor": "rgb(78, 77, 72)"
    },
    {
      "rtag": "W2",
      "rname": "Weekend 2",
      "rcolor": "rgb(78, 77, 72)"
    },
    {
      "rtag": "SUMM1",
      "rname": "Summer 1",
      "rcolor": "rgb(244, 74, 74)"
    },
    {
      "rtag": "SUMM2",
      "rname": "Summer 2",
      "rcolor": "rgb(32, 116, 214)"
    },
    {
      "rtag": "Penn St",
      "rname": "Newark Penn Station",
      "rcolor": "rgb(255, 102, 199)"
    },
    {
      "rtag": "Connect",
      "rname": "Newark Campus Connect",
      "rcolor": "rgb(250, 209, 0)"
    },
    {
      "rtag": "Kearny",
      "rname": "Newark Kearny",
      "rcolor": "rgb(74, 144, 226)"
    },
    {
      "rtag": "Penn St E",
      "rname": "Newark Penn Station Express",
      "rcolor": "rgb(245, 166, 35)"
    },
    {
      "rtag": "Connect E",
      "rname": "Newark Campus Connect Express",
      "rcolor": "rgb(126, 211, 33)"
    },
    {
      "rtag": "Campus Connect PM",
      "rname": "Campus Connect PM",
      "rcolor": "#4A90E2"
    },
    {
      "rtag": "Run Run E",
      "rname": "Newark Run Run Express",
      "rcolor": "rgb(78, 77, 72)"
    },
    {
      "rtag": "Run Run",
      "rname": "Newark Run Run",
      "rcolor": "rgb(255, 101, 101)"
    },
    {
      "rtag": "CR",
      "rname": "Camden Rising",
      "rcolor": "rgb(255, 101, 101)"
    },
    {
      "rtag": "CL",
      "rname": "Courthouse Loop",
      "rcolor": "rgb(74, 144, 226)"
    },
    {
      "rtag": "RCS",
      "rname": "Rutgers Camden Shuttle",
      "rcolor": "rgb(245, 166, 35)"
    },
    {
      "rtag": "?",
      "rname": "else",
      "rcolor": "rgb(142, 142, 147)"
    },
    {
      "rtag": "Purple",
      "rname": "NB Purple Route",
      "rcolor": "#BD10E0"
    },
    {
      "rtag": "Blue",
      "rname": "NB Blue Route",
      "rcolor": "#2074D6"
    },
    {
      "rtag": "Orange",
      "rname": "NB Orange Route",
      "rcolor": "#F5A623"
    },
    {
      "rtag": "Scarlet",
      "rname": "NB Scarlet Route",
      "rcolor": "#FF2400"
    },
    {
      "rtag": "Yellow",
      "rname": "NB Yellow Route",
      "rcolor": "#FAD100"
    },
    {
      "rtag": "Green",
      "rname": "NB Green Route",
      "rcolor": "#7ED321"
    },
    {
      "rtag": "A-Exam",
      "rname": "Route A - Exam",
      "rcolor": "rgb(124, 31, 206)"
    },
    {
      "rtag": "B-Exam",
      "rname": "Route B - Exam",
      "rcolor": "rgb(32, 116, 214)"
    },
    {
      "rtag": "C-Exam",
      "rname": "Route C - Exam",
      "rcolor": "rgb(244, 74, 74)"
    },
    {
      "rtag": "EE-Exam",
      "rname": "Route EE - Exam",
      "rcolor": "rgb(62, 210, 177)"
    },
    {
      "rtag": "F-Exam",
      "rname": "Route F - Exam",
      "rcolor": "rgb(243, 37, 168)"
    },
    {
      "rtag": "H-Exam",
      "rname": "Route H - Exam",
      "rcolor": "rgb(119, 204, 27)"
    },
    {
      "rtag": "LX-Exam",
      "rname": "Route LX - Exam",
      "rcolor": "rgb(255, 204, 0)"
    },
    {
      "rtag": "REXB-Exam",
      "rname": "Route REXB - Exam",
      "rcolor": "rgb(255, 149, 0)"
    },
    {
      "rtag": "REXL-Exam",
      "rname": "Route REXL - Exam",
      "rcolor": "rgb(187, 120, 246)"
    },
    {
      "rtag": "B-He-Exam",
      "rname": "Route B-He - Exam",
      "rcolor": "rgb(160, 82, 45)"
    },
    {
      "rtag": "W1-Night",
      "rname": "OverNight Weekend 1",
      "rcolor": "rgb(244, 74, 74)"
    },
    {
      "rtag": "W2-Night",
      "rname": "OverNight Weekend 2",
      "rcolor": "rgb(32, 116, 214)"
    }
  ],
  "campusColor": [
    {"campus": "COLLEGE AVENUE", "ccolor": "#FEC938", "cName": "College Ave"},
    {"campus": "BUSCH", "ccolor": "#8D3092", "cName": "Busch"},
    {"campus": "LIVINGSTON", "ccolor": "#006FBA", "cName": "Livingston"},
    {"campus": "DOUGLAS/COOK", "ccolor": "#65BE6B", "cName": "Cook/Douglass"},
    {"campus": "NEWARK", "ccolor": "#E51936", "cName": "Newark"},
    {"campus": "CAMDEN", "ccolor": "#E51936", "cName": "Camden"},
    {
      "campus": "CAMDEN COUNTY COLLEGE",
      "ccolor": "#4A4A4A",
      "cName": "Camden CC"
    },
    {"campus": "DOWNTOWN NB", "ccolor": "#4A4A4A", "cName": "Downtown NB"},
    {
      "campus": "COUNTY COLLEGE OF MORR",
      "ccolor": "#4A4A4A",
      "cName": "CC of Morr"
    },
    {
      "campus": "ATLANTIC CITY/MAYS LAN",
      "ccolor": "#4A4A4A",
      "cName": "Mays Landing"
    },
    {
      "campus": "BROOKDALE COMMUNITY CO",
      "ccolor": "#4A4A4A",
      "cName": "Brookdale CC"
    },
    {"campus": "RUTGERS", "ccolor": "#E51936", "cName": "Rutgers"},
    {
      "campus": "MERCER COUNTY COLLEGE",
      "ccolor": "#4A4A4A",
      "cName": "Mercer CC"
    },
    {"campus": "CHINA", "ccolor": "#df2047", "cName": "China"}
  ]
}
